WO,3,3600,200
PH1,300,0,0,0,300,0,0,0,0,3.9,8
PL1,B,100,2,10000
TS1,C,300,5,15,2,80,20
TS2,C,300,5,15,2,08,02
PL2,B,100,1,1000
TS1,C,256,5,35,2,80,08
PL3,B,100,5,60000
TS1,C,180,5,50,2,80,10
TS2,D,30,5,50,2,10,20
TS3,C,180,5,50,2,20,40
TS4,C,180,5,50,2,40,80
TS5,C,180,5,50,2,40,80
PL4,B,100,5,10000
TS1,C,180,5,50,2,08,01
TS2,D,30,5,50,2,01,02
TS3,C,180,5,50,2,02,04
TS4,C,180,5,50,2,04,08
TS5,C,180,5,50,2,04,08
PL5,B,100,1,60000
TS1,C,400,5,25,2,04,01
PL6,B,100,1,1000
TS1,C,400,5,25,2,40,10
PL7,B,100,1,1000
TS1,C,400,5,50,2,10,01
PL8,B,100,1,1000
TS1,C,350,5,50,2,04,40
PH2,3000,0,0,0,3000,0,0,0,0,4.3,8
PL1,B,100,2,10000
TS1,C,300,5,15,2,80,20
TS2,C,300,5,15,2,08,02
PL2,B,100,1,1000
TS1,C,256,5,35,2,80,08
PL3,B,100,5,60000
TS1,C,180,5,50,2,80,10
TS2,D,30,5,50,2,10,20
TS3,C,180,5,50,2,20,40
TS4,C,180,5,50,2,40,80
TS5,C,180,5,50,2,40,80
PL4,B,100,5,10000
TS1,C,180,5,50,2,08,01
TS2,D,30,5,50,2,01,02
TS3,C,180,5,50,2,02,04
TS4,C,180,5,50,2,04,08
TS5,C,180,5,50,2,04,08
PL5,B,100,1,60000
TS1,C,400,5,25,2,04,01
PL6,B,100,1,1000
TS1,C,400,5,25,2,40,10
PL7,B,100,1,1000
TS1,C,400,5,50,2,10,01
PL8,B,100,1,1000
TS1,C,350,5,50,2,04,40
PH3,300,0,0,0,300,0,0,0,0,3.9,8
PL1,B,100,2,10000
TS1,C,300,5,15,2,80,20
TS2,C,300,5,15,2,08,02
PL2,B,100,1,1000
TS1,C,256,5,35,2,80,08
PL3,B,100,5,60000
TS1,C,180,5,50,2,80,10
TS2,D,30,5,50,2,10,20
TS3,C,180,5,50,2,20,40
TS4,C,180,5,50,2,40,80
TS5,C,180,5,50,2,40,80
PL4,B,100,5,10000
TS1,C,180,5,50,2,08,01
TS2,D,30,5,50,2,01,02
TS3,C,180,5,50,2,02,04
TS4,C,180,5,50,2,04,08
TS5,C,180,5,50,2,04,08
PL5,B,100,1,60000
TS1,C,400,5,25,2,04,01
PL6,B,100,1,1000
TS1,C,400,5,25,2,40,10
PL7,B,100,1,1000
TS1,C,400,5,50,2,10,01
PL8,B,100,1,1000
TS1,C,350,5,50,2,04,40
FLIPPING