WO,4,3360,200
PH1,840,0,30,14,0,35,14,0,0,3.9,9
PL1,B,100,2,5000
TS1,C,300,5,21,2,80,20
TS2,C,300,5,21,2,08,02
PL2,B,100,1,1000
TS1,C,400,5,49,2,80,08
PL3,B,100,5,60000
TS1,C,180,5,70,2,80,10
TS2,D,30,5,70,2,10,20
TS3,C,180,5,70,2,20,40
TS4,C,180,5,70,2,40,80
TS5,C,180,5,70,2,40,80
PL4,B,100,1,1000
TS1,C,400,5,70,2,80,08
PL5,B,100,5,2000
TS1,C,180,5,70,2,08,01
TS2,D,30,5,70,2,01,02
TS3,C,180,5,70,2,02,04
TS4,C,180,5,70,2,04,08
TS5,C,180,5,70,2,04,08
PL6,B,100,1,60000
TS1,C,400,5,35,2,04,01
PL7,B,100,1,2000
TS1,C,400,5,35,2,40,10
PL8,B,100,1,2000
TS1,C,400,5,70,2,10,01
PL9,B,100,3,2000
TS1,C,350,5,70,2,04,40
TS2,D,30,5,70,2,40,04
TS3,C,350,5,70,2,04,40
PH2,840,0,30,14,0,35,14,0,0,4.0,9
PL1,B,100,2,5000
TS1,C,300,5,24,2,80,20
TS2,C,300,5,24,2,08,02
PL2,B,100,1,1000
TS1,C,400,5,56,2,80,08
PL3,B,100,5,60000
TS1,C,180,5,80,2,80,10
TS2,D,30,5,80,2,10,20
TS3,C,180,5,80,2,20,40
TS4,C,180,5,80,2,40,80
TS5,C,180,5,80,2,40,80
PL4,B,100,1,1000
TS1,C,400,5,80,2,80,08
PL5,B,100,5,2000
TS1,C,180,5,80,2,08,01
TS2,D,30,5,80,2,01,02
TS3,C,180,5,80,2,02,04
TS4,C,180,5,80,2,04,08
TS5,C,180,5,80,2,04,08
PL6,B,100,1,60000
TS1,C,400,5,40,2,04,01
PL7,B,100,1,2000
TS1,C,400,5,40,2,40,10
PL8,B,100,1,2000
TS1,C,400,5,80,2,10,01
PL9,B,100,3,2000
TS1,C,350,5,80,2,04,40
TS2,D,30,5,80,2,40,04
TS3,C,350,5,80,2,04,40
PH3,840,0,30,14,0,35,14,0,0,4.1,9
PL1,B,100,2,5000
TS1,C,300,5,28,2,80,20
TS2,C,300,5,28,2,08,02
PL2,B,100,1,1000
TS1,C,400,5,63,2,80,08
PL3,B,100,5,60000
TS1,C,180,5,90,2,80,10
TS2,D,30,5,90,2,10,20
TS3,C,180,5,90,2,20,40
TS4,C,180,5,90,2,40,80
TS5,C,180,5,90,2,40,80
PL4,B,100,1,1000
TS1,C,400,5,90,2,80,08
PL5,B,100,5,2000
TS1,C,180,5,90,2,08,01
TS2,D,30,5,90,2,01,02
TS3,C,180,5,90,2,02,04
TS4,C,180,5,90,2,04,08
TS5,C,180,5,90,2,04,08
PL6,B,100,1,60000
TS1,C,400,5,45,2,04,01
PL7,B,100,1,2000
TS1,C,400,5,45,2,40,10
PL8,B,100,1,2000
TS1,C,400,5,90,2,10,01
PL9,B,100,3,2000
TS1,C,350,5,90,2,04,40
TS2,D,30,5,90,2,40,04
TS3,C,350,5,90,2,04,40
PH4,840,0,30,10,4,30,10,0,0,4.2,9
PL1,B,100,2,5000
TS1,C,300,5,30,2,80,20
TS2,C,300,5,30,2,08,02
PL2,B,100,1,1000
TS1,C,400,5,70,2,80,08
PL3,B,100,5,60000
TS1,C,180,5,100,2,80,10
TS2,D,30,5,100,2,10,20
TS3,C,180,5,100,2,20,40
TS4,C,180,5,100,2,40,80
TS5,C,180,5,100,2,40,80
PL4,B,100,1,1000
TS1,C,400,5,100,2,80,08
PL5,B,100,5,2000
TS1,C,180,5,100,2,08,01
TS2,D,30,5,100,2,01,02
TS3,C,180,5,100,2,02,04
TS4,C,180,5,100,2,04,08
TS5,C,180,5,100,2,04,08
PL6,B,100,1,60000
TS1,C,400,5,50,2,04,01
PL7,B,100,1,2000
TS1,C,400,5,50,2,40,10
PL8,B,100,1,2000
TS1,C,400,5,100,2,10,01
PL9,B,100,3,2000
TS1,C,350,5,100,2,04,40
TS2,D,30,5,100,2,40,04
TS3,C,350,5,100,2,04,40
FLIPPING
